<svg xmlns="http://www.w3.org/2000/svg" viewBox="0 0 22 22">
  <defs id="defs3051">
    <style type="text/css" id="current-color-scheme">
      .ColorScheme-Text {
        color:red;
      }
      </style>
  </defs>
    <path style="fill:currentColor;fill-opacity:1;stroke:none" d="M 7 3 C 6.446 3 6 3.446 6 4" class="ColorScheme-Text"/>
</svg>